<define-tag pagetitle>DLA-3020-1 thunderbird</define-tag>
<define-tag report_date>2022-05-23</define-tag>
<define-tag secrefs>CVE-2022-1520 CVE-2022-29909 CVE-2022-29911 CVE-2022-29912 CVE-2022-29913 CVE-2022-29914 CVE-2022-29916 CVE-2022-29917</define-tag>
<define-tag packages>thunderbird</define-tag>
<define-tag isvulnerable>yes</define-tag>
<define-tag fixed>yes</define-tag>
<define-tag fixed-section>no</define-tag>

#use wml::debian::security

