<define-tag pagetitle>DLA-2956-1 wordpress</define-tag>
<define-tag report_date>2022-03-21</define-tag>
<define-tag secrefs>Bug#1007145</define-tag>
<define-tag packages>wordpress</define-tag>
<define-tag isvulnerable>yes</define-tag>
<define-tag fixed>yes</define-tag>
<define-tag fixed-section>no</define-tag>

#use wml::debian::security

