<define-tag pagetitle>DLA-3019-1 admesh</define-tag>
<define-tag report_date>2022-05-23</define-tag>
<define-tag secrefs>CVE-2018-25033 Bug#1010770</define-tag>
<define-tag packages>admesh</define-tag>
<define-tag isvulnerable>yes</define-tag>
<define-tag fixed>yes</define-tag>
<define-tag fixed-section>no</define-tag>

#use wml::debian::security

