<define-tag pagetitle>DSA-4881-1 curl</define-tag>
<define-tag report_date>2021-3-30</define-tag>
<define-tag secrefs>CVE-2020-8169 CVE-2020-8177 CVE-2020-8231 CVE-2020-8284 CVE-2020-8285 CVE-2020-8286 CVE-2021-22876 CVE-2021-22890 Bug#965280 Bug#965281 Bug#968831 Bug#977161 Bug#977162 Bug#977163</define-tag>
<define-tag packages>curl</define-tag>
<define-tag isvulnerable>yes</define-tag>
<define-tag fixed>yes</define-tag>
<define-tag fixed-section>no</define-tag>

#use wml::debian::security



</dl>
