<define-tag pagetitle>DSA-4643-1 python-bleach</define-tag>
<define-tag report_date>2020-3-20</define-tag>
<define-tag secrefs>CVE-2020-6816 Bug#954236</define-tag>
<define-tag packages>python-bleach</define-tag>
<define-tag isvulnerable>yes</define-tag>
<define-tag fixed>yes</define-tag>
<define-tag fixed-section>no</define-tag>

#use wml::debian::security



</dl>
