<define-tag pagetitle>DLA-2637-1 drupal7</define-tag>
<define-tag report_date>2021-4-23</define-tag>
<define-tag packages>drupal7</define-tag>
<define-tag isvulnerable>yes</define-tag>
<define-tag fixed>yes</define-tag>
<define-tag fixed-section>no</define-tag>

#use wml::debian::security

