<define-tag pagetitle>DLA-2430-1 blueman</define-tag>
<define-tag report_date>2020-11-03</define-tag>
<define-tag secrefs>CVE-2020-15238</define-tag>
<define-tag packages>blueman</define-tag>
<define-tag isvulnerable>yes</define-tag>
<define-tag fixed>yes</define-tag>
<define-tag fixed-section>no</define-tag>

#use wml::debian::security

