<define-tag pagetitle>DLA-2397-1 php7.0</define-tag>
<define-tag report_date>2020-10-06</define-tag>
<define-tag secrefs>CVE-2020-7070</define-tag>
<define-tag packages>php7.0</define-tag>
<define-tag isvulnerable>yes</define-tag>
<define-tag fixed>yes</define-tag>
<define-tag fixed-section>no</define-tag>

#use wml::debian::security

