<define-tag pagetitle>DLA-2500-1 curl</define-tag>
<define-tag report_date>2020-12-18</define-tag>
<define-tag secrefs>CVE-2020-8284 CVE-2020-8285 CVE-2020-8286 Bug#977161 Bug#977162 Bug#977163</define-tag>
<define-tag packages>curl</define-tag>
<define-tag isvulnerable>yes</define-tag>
<define-tag fixed>yes</define-tag>
<define-tag fixed-section>no</define-tag>

#use wml::debian::security

