<define-tag pagetitle>DLA-2383-1 nfdump</define-tag>
<define-tag report_date>2020-9-26</define-tag>
<define-tag secrefs>CVE-2019-14459 CVE-2019-1010057</define-tag>
<define-tag packages>nfdump</define-tag>
<define-tag isvulnerable>yes</define-tag>
<define-tag fixed>yes</define-tag>
<define-tag fixed-section>no</define-tag>

#use wml::debian::security

