<define-tag pagetitle>DLA-1528-1 strongswan</define-tag>
<define-tag report_date>2018-10-2</define-tag>
<define-tag secrefs>CVE-2018-17540</define-tag>
<define-tag packages>strongswan</define-tag>
<define-tag isvulnerable>yes</define-tag>
<define-tag fixed>yes</define-tag>
<define-tag fixed-section>no</define-tag>

#use wml::debian::security

