<define-tag pagetitle>DSA-5226-1 pcs</define-tag>
<define-tag report_date>2022-9-06</define-tag>
<define-tag secrefs>CVE-2022-1049 CVE-2022-2735 Bug#1018930</define-tag>
<define-tag packages>pcs</define-tag>
<define-tag isvulnerable>yes</define-tag>
<define-tag fixed>yes</define-tag>
<define-tag fixed-section>no</define-tag>

#use wml::debian::security



</dl>
