<define-tag pagetitle>DSA-5051-1 aide</define-tag>
<define-tag report_date>2022-1-20</define-tag>
<define-tag secrefs>CVE-2021-45417</define-tag>
<define-tag packages>aide</define-tag>
<define-tag isvulnerable>yes</define-tag>
<define-tag fixed>yes</define-tag>
<define-tag fixed-section>no</define-tag>

#use wml::debian::security



</dl>
