<define-tag pagetitle>DSA-5087-1 cyrus-sasl2</define-tag>
<define-tag report_date>2022-2-25</define-tag>
<define-tag secrefs>CVE-2022-24407</define-tag>
<define-tag packages>cyrus-sasl2</define-tag>
<define-tag isvulnerable>yes</define-tag>
<define-tag fixed>yes</define-tag>
<define-tag fixed-section>no</define-tag>

#use wml::debian::security



</dl>
