<define-tag pagetitle>DLA-1629-1 python-django</define-tag>
<define-tag report_date>2019-1-6</define-tag>
<define-tag secrefs>CVE-2019-3498 Bug##918230</define-tag>
<define-tag packages>python-django</define-tag>
<define-tag isvulnerable>yes</define-tag>
<define-tag fixed>yes</define-tag>
<define-tag fixed-section>no</define-tag>

#use wml::debian::security

