<define-tag pagetitle>DLA-1628-2 jasper</define-tag>
<define-tag report_date>2019-4-13</define-tag>
<define-tag packages>jasper</define-tag>
<define-tag isvulnerable>yes</define-tag>
<define-tag fixed>yes</define-tag>
<define-tag fixed-section>no</define-tag>

#use wml::debian::security

