<define-tag pagetitle>DLA-1947-1 libreoffice</define-tag>
<define-tag report_date>2019-10-06</define-tag>
<define-tag secrefs>CVE-2019-9848 CVE-2019-9849 CVE-2019-9850 CVE-2019-9851 CVE-2019-9852 CVE-2019-9853 CVE-2019-9854</define-tag>
<define-tag packages>libreoffice</define-tag>
<define-tag isvulnerable>yes</define-tag>
<define-tag fixed>yes</define-tag>
<define-tag fixed-section>no</define-tag>

#use wml::debian::security

