<define-tag pagetitle>DLA-592-1 postgresql-9.1</define-tag>
<define-tag report_date>2016-8-11</define-tag>
<define-tag packages>postgresql-9.1</define-tag>
<define-tag isvulnerable>yes</define-tag>
<define-tag fixed>yes</define-tag>
<define-tag fixed-section>no</define-tag>

#use wml::debian::security

