<define-tag pagetitle>DLA-714-1 wireshark</define-tag>
<define-tag report_date>2016-11-21</define-tag>
<define-tag secrefs>CVE-2016-9373 CVE-2016-9374 CVE-2016-9375 CVE-2016-9376</define-tag>
<define-tag packages>wireshark</define-tag>
<define-tag isvulnerable>yes</define-tag>
<define-tag fixed>yes</define-tag>
<define-tag fixed-section>no</define-tag>

#use wml::debian::security

