<define-tag pagetitle>DLA-458-1 mplayer2</define-tag>
<define-tag report_date>2016-5-5</define-tag>
<define-tag secrefs>CVE-2016-4352</define-tag>
<define-tag packages>mplayer2</define-tag>
<define-tag isvulnerable>yes</define-tag>
<define-tag fixed>yes</define-tag>
<define-tag fixed-section>no</define-tag>

#use wml::debian::security

